\relax 
\catcode`"\active
\ifx\hyper@anchor\@undefined
\global \let \oldcontentsline\contentsline
\gdef \contentsline#1#2#3#4{\oldcontentsline{#1}{#2}{#3}}
\global \let \oldnewlabel\newlabel
\gdef \newlabel#1#2{\newlabelxx{#1}#2}
\gdef \newlabelxx#1#2#3#4#5#6{\oldnewlabel{#1}{{#2}{#3}}}
\AtEndDocument{\let \contentsline\oldcontentsline
\let \newlabel\oldnewlabel}
\else
\global \let \hyper@last\relax 
\fi

\citation{torres12}
\citation{tanembaum07}
\select@language{portuges}
\@writefile{toc}{\select@language{portuges}}
\@writefile{lof}{\select@language{portuges}}
\@writefile{lot}{\select@language{portuges}}
\@writefile{toc}{\contentsline {section}{\numberline {1}Introdu\IeC {\c c}\IeC {\~a}o}{1}{section.1}}
\newlabel{sec:introducao}{{1}{1}{Introdução\relax }{section.1}{}}
\@writefile{toc}{\contentsline {section}{\numberline {2}Transpar\^encia}{1}{section.2}}
\citation{mantinez13}
\citation{tanembaum07}
\citation{tanembaum07}
\citation{tanembaum07}
\citation{eriko14}
\citation{zanutto}
\bibstyle{sbc}
\bibdata{biblio/bibliografia}
\bibcite{mantinez13}{Mantinez 2013}
\bibcite{tanembaum07}{Tanenbaum and Van~Steen 2007}
\bibcite{torres12}{Torres 2012}
\bibcite{zanutto}{Zanutto }
\bibcite{eriko14}{\IeC {\'E}riko Moreira 2014}
\newlabel{sec:trabrel}{{2}{3}{Transpar\^encia\relax }{section.2}{}}
\@writefile{toc}{\contentsline {section}{\numberline {3}Conclus\IeC {\~a}o e Trabalhos Futuros}{3}{section.3}}
\newlabel{sec:conclusao}{{3}{3}{Conclusão e Trabalhos Futuros\relax }{section.3}{}}
